{
	"atlanta": {
		"url": "https://www.fmls.com/",
		"login_info": {
			"username": "steigman",
			"passwd": "caprate23",
			"username_input_id": "PblcID",
			"passwd_input_id": "password",
			"btn_locating_method": "tag"
		}

	},
	
	"philadelphia": {
		"url": "https://www.trendmls.com/",
		"login_info": {
			"username": "steigman",
			"passwd": "caprate23",
			"username_input_id": "ctl00_cb_txtTrendLoginName",
			"passwd_input_id": "ctl00_cb_txtTrendPassword",
			"login_button": "ctl00_cb_btnLogin",
			"btn_locating_method": "id"

		}
	},

	"south_florida": {
		"url": "https://www.matrix.southfloridamls.com/matrix/login.aspx",
		"login_info": {
			"username": "276533604",
			"passwd": "caprate23",
			"username_input_id": "m_tbName",
			"passwd_input_id": "m_tbPassword",
			"login_button": "m_imgbtnLogin",
			"btn_locating_method": "id"

		}
	}

}